Modelling
…
health_data

# A tibble: 253,680 × 22
   Diabetes_binary HighBP HighChol CholCheck   BMI Smoker Stroke
             <dbl> <fct>  <fct>    <fct>     <dbl> <fct>  <fct> 
 1               0 Yes    Yes      Yes          40 Yes    No    
 2               0 No     No       No           25 Yes    No    
 3               0 Yes    Yes      Yes          28 No     No    
 4               0 Yes    No       Yes          27 No     No    
 5               0 Yes    Yes      Yes          24 No     No    
 6               0 Yes    Yes      Yes          25 Yes    No    
 7               0 Yes    No       Yes          30 Yes    No    
 8               0 Yes    Yes      Yes          25 Yes    No    
 9               1 Yes    Yes      Yes          30 Yes    No    
10               0 No     No       Yes          24 No     No    
# ℹ 253,670 more rows
# ℹ 15 more variables: HeartDiseaseorAttack <fct>, PhysActivity <fct>,
#   Fruits <fct>, Veggies <fct>, HvyAlcoholConsump <fct>, AnyHealthcare <fct>,
#   NoDocbcCost <fct>, GenHlth <fct>, MentHlth <dbl>, PhysHlth <dbl>,
#   DiffWalk <fct>, Sex <fct>, Age <fct>, Education <fct>, Income <fct>
…
final_tree <- finalize_workflow(tree_wkf, best_tree) |>
  fit(data = diabetes_train)

Evaluate the model on the test set # TRy

tree_pred <- predict(final_tree, diabetes_test, type = "prob") |>
  bind_cols(diabetes_test |>
              select(Diabetes_binary))

log-loss on test data

print(tree_pred)

# A tibble: 76,105 × 3
   .pred_0 .pred_1 Diabetes_binary
     <dbl>   <dbl> <fct>          
 1   0.812  0.188  0              
 2   0.812  0.188  1              
 3   0.963  0.0371 1              
 4   0.812  0.188  0              
 5   0.963  0.0371 0              
 6   0.812  0.188  0              
 7   0.425  0.575  1              
 8   0.916  0.0843 0              
 9   0.963  0.0371 0              
10   0.963  0.0371 0              
# ℹ 76,095 more rows
…
